<?xml version="1.0" encoding="UTF-8" standalone="no"?>
<!-- Created with Inkscape (http://www.inkscape.org/) -->

<svg
   xmlns:dc="http://purl.org/dc/elements/1.1/"
   xmlns:cc="http://creativecommons.org/ns#"
   xmlns:rdf="http://www.w3.org/1999/02/22-rdf-syntax-ns#"
   xmlns:svg="http://www.w3.org/2000/svg"
   xmlns="http://www.w3.org/2000/svg"
   xmlns:sodipodi="http://sodipodi.sourceforge.net/DTD/sodipodi-0.dtd"
   xmlns:inkscape="http://www.inkscape.org/namespaces/inkscape"
   width="64"
   height="64"
   id="svg4136"
   version="1.1"
   inkscape:version="0.91 r13725"
   viewBox="0 0 64 64"
   sodipodi:docname="lockingon.svg"
   inkscape:export-filename="O:\org\prog\icculus\build\release-mingw32-x86_64\konkrete\gfx\2d\lockingon.png"
   inkscape:export-xdpi="720"
   inkscape:export-ydpi="720">
  <defs
     id="defs4138" />
  <sodipodi:namedview
     id="base"
     pagecolor="#ffffff"
     bordercolor="#666666"
     borderopacity="1.0"
     inkscape:pageopacity="0"
     inkscape:pageshadow="2"
     inkscape:zoom="5.5"
     inkscape:cx="3.1545176"
     inkscape:cy="54.417724"
     inkscape:current-layer="layer1"
     showgrid="true"
     inkscape:document-units="px"
     inkscape:grid-bbox="true"
     inkscape:window-width="1680"
     inkscape:window-height="987"
     inkscape:window-x="-4"
     inkscape:window-y="-4"
     inkscape:window-maximized="1"
     inkscape:snap-page="true"
     showguides="true"
     inkscape:guide-bbox="true"
     inkscape:object-paths="true"
     inkscape:snap-intersection-paths="true"
     inkscape:object-nodes="true"
     inkscape:snap-smooth-nodes="true"
     inkscape:snap-midpoints="true">
    <sodipodi:guide
       position="64,64"
       orientation="-0.70710678,0.70710678"
       id="guide4136" />
    <sodipodi:guide
       position="0,64"
       orientation="0.70710678,0.70710678"
       id="guide4138" />
    <sodipodi:guide
       position="7.0909091,56.909091"
       orientation="-0.70710678,0.70710678"
       id="guide4140" />
  </sodipodi:namedview>
  <metadata
     id="metadata4141">
    <rdf:RDF>
      <cc:Work
         rdf:about="">
        <dc:format>image/svg+xml</dc:format>
        <dc:type
           rdf:resource="http://purl.org/dc/dcmitype/StillImage" />
        <dc:title></dc:title>
      </cc:Work>
    </rdf:RDF>
  </metadata>
  <g
     id="layer1"
     inkscape:label="Layer 1"
     inkscape:groupmode="layer">
    <path
       sodipodi:type="star"
       style="fill:#ffffff;fill-opacity:1;fill-rule:nonzero;stroke:none;stroke-width:0.82200003;stroke-linecap:round;stroke-linejoin:round;stroke-miterlimit:4;stroke-dasharray:none;stroke-dashoffset:0;stroke-opacity:1"
       id="path4144"
       sodipodi:sides="3"
       sodipodi:cx="7.1165202"
       sodipodi:cy="7.1486611"
       sodipodi:r1="7.3675637"
       sodipodi:r2="3.6837816"
       sodipodi:arg1="-1.3089969"
       sodipodi:arg2="-0.26179939"
       inkscape:flatsided="true"
       inkscape:rounded="0"
       inkscape:randomized="0"
       d="M 9.0233865,0.03214113 12.326174,12.358316 2.5211378e-7,9.0555267 Z"
       inkscape:transform-center-x="0.95343287"
       inkscape:transform-center-y="-0.95343287" />
    <path
       inkscape:transform-center-y="0.95343288"
       inkscape:transform-center-x="0.95343323"
       d="M 7.5835614,48.700474 10.886349,61.026648 -1.4398248,57.723859 Z"
       inkscape:randomized="0"
       inkscape:rounded="0"
       inkscape:flatsided="true"
       sodipodi:arg2="-0.26179939"
       sodipodi:arg1="-1.3089969"
       sodipodi:r2="3.6837816"
       sodipodi:r1="7.3675637"
       sodipodi:cy="55.816994"
       sodipodi:cx="5.6766953"
       sodipodi:sides="3"
       id="path4148"
       style="fill:#ffffff;fill-opacity:1;fill-rule:nonzero;stroke:none;stroke-width:0.82200003;stroke-linecap:round;stroke-linejoin:round;stroke-miterlimit:4;stroke-dasharray:none;stroke-dashoffset:0;stroke-opacity:1"
       sodipodi:type="star"
       transform="matrix(0,-1,1,0,-48.700474,62.560175)" />
    <path
       transform="scale(-1,-1)"
       sodipodi:type="star"
       style="fill:#ffffff;fill-opacity:1;fill-rule:nonzero;stroke:none;stroke-width:0.82200003;stroke-linecap:round;stroke-linejoin:round;stroke-miterlimit:4;stroke-dasharray:none;stroke-dashoffset:0;stroke-opacity:1"
       id="path4150"
       sodipodi:sides="3"
       sodipodi:cx="-56.88348"
       sodipodi:cy="-56.88348"
       sodipodi:r1="7.3675637"
       sodipodi:r2="3.6837816"
       sodipodi:arg1="-1.3089969"
       sodipodi:arg2="-0.26179939"
       inkscape:flatsided="true"
       inkscape:rounded="0"
       inkscape:randomized="0"
       d="m -54.976614,-64 3.302788,12.326174 L -64,-54.976615 Z"
       inkscape:transform-center-x="-0.95343069"
       inkscape:transform-center-y="0.95343335" />
    <path
       inkscape:transform-center-y="-0.95343065"
       inkscape:transform-center-x="-0.95343295"
       d="m -46.965883,-17.034116 3.302788,12.3261746 -12.326174,-3.3027889 z"
       inkscape:randomized="0"
       inkscape:rounded="0"
       inkscape:flatsided="true"
       sodipodi:arg2="-0.26179939"
       sodipodi:arg1="-1.3089969"
       sodipodi:r2="3.6837816"
       sodipodi:r1="7.3675637"
       sodipodi:cy="-9.9175959"
       sodipodi:cx="-48.872749"
       sodipodi:sides="3"
       id="path4152"
       style="fill:#ffffff;fill-opacity:1;fill-rule:nonzero;stroke:none;stroke-width:0.82200003;stroke-linecap:round;stroke-linejoin:round;stroke-miterlimit:4;stroke-dasharray:none;stroke-dashoffset:0;stroke-opacity:1"
       sodipodi:type="star"
       transform="matrix(0,1,-1,0,46.965884,55.989269)" />
  </g>
</svg>
